%YAML 1.1
%TAG !u! tag:unity3d.com,2011:
--- !u!1001 &6055732764358696519
PrefabInstance:
  m_ObjectHideFlags: 0
  serializedVersion: 2
  m_Modification:
    serializedVersion: 3
    m_TransformParent: {fileID: 0}
    m_Modifications:
    - target: {fileID: 3896765729069107667, guid: c6d9a67f4c43f314fa64722c9718d40c, type: 3}
      propertyPath: _data._json
      value: '{"declarations":{"Kind":"Object","collection":{"$content":[],"$version":"A"},"$version":"A"}}'
      objectReference: {fileID: 0}
    - target: {fileID: 4562941238130777533, guid: c6d9a67f4c43f314fa64722c9718d40c, type: 3}
      propertyPath: m_Name
      value: FPSController  Variant
      objectReference: {fileID: 0}
    - target: {fileID: 7874112393450749543, guid: c6d9a67f4c43f314fa64722c9718d40c, type: 3}
      propertyPath: m_LocalPosition.x
      value: 0
      objectReference: {fileID: 0}
    - target: {fileID: 7874112393450749543, guid: c6d9a67f4c43f314fa64722c9718d40c, type: 3}
      propertyPath: m_LocalPosition.y
      value: 0
      objectReference: {fileID: 0}
    - target: {fileID: 7874112393450749543, guid: c6d9a67f4c43f314fa64722c9718d40c, type: 3}
      propertyPath: m_LocalPosition.z
      value: 1.28
      objectReference: {fileID: 0}
    - target: {fileID: 7874112393450749543, guid: c6d9a67f4c43f314fa64722c9718d40c, type: 3}
      propertyPath: m_LocalRotation.w
      value: 1
      objectReference: {fileID: 0}
    - target: {fileID: 7874112393450749543, guid: c6d9a67f4c43f314fa64722c9718d40c, type: 3}
      propertyPath: m_LocalRotation.x
      value: 0
      objectReference: {fileID: 0}
    - target: {fileID: 7874112393450749543, guid: c6d9a67f4c43f314fa64722c9718d40c, type: 3}
      propertyPath: m_LocalRotation.y
      value: 0
      objectReference: {fileID: 0}
    - target: {fileID: 7874112393450749543, guid: c6d9a67f4c43f314fa64722c9718d40c, type: 3}
      propertyPath: m_LocalRotation.z
      value: 0
      objectReference: {fileID: 0}
    - target: {fileID: 7874112393450749543, guid: c6d9a67f4c43f314fa64722c9718d40c, type: 3}
      propertyPath: m_LocalEulerAnglesHint.x
      value: 0
      objectReference: {fileID: 0}
    - target: {fileID: 7874112393450749543, guid: c6d9a67f4c43f314fa64722c9718d40c, type: 3}
      propertyPath: m_LocalEulerAnglesHint.y
      value: 0
      objectReference: {fileID: 0}
    - target: {fileID: 7874112393450749543, guid: c6d9a67f4c43f314fa64722c9718d40c, type: 3}
      propertyPath: m_LocalEulerAnglesHint.z
      value: 0
      objectReference: {fileID: 0}
    m_RemovedComponents:
    - {fileID: 7804168573406488633, guid: c6d9a67f4c43f314fa64722c9718d40c, type: 3}
    - {fileID: 9191180448268925627, guid: c6d9a67f4c43f314fa64722c9718d40c, type: 3}
    - {fileID: 5513788046473744970, guid: c6d9a67f4c43f314fa64722c9718d40c, type: 3}
    - {fileID: 4782881416482416320, guid: c6d9a67f4c43f314fa64722c9718d40c, type: 3}
    - {fileID: 6009856041370225310, guid: c6d9a67f4c43f314fa64722c9718d40c, type: 3}
    - {fileID: 2455035424593087826, guid: c6d9a67f4c43f314fa64722c9718d40c, type: 3}
    - {fileID: 8120153748371844925, guid: c6d9a67f4c43f314fa64722c9718d40c, type: 3}
    - {fileID: 9164632389588838320, guid: c6d9a67f4c43f314fa64722c9718d40c, type: 3}
    - {fileID: 7681344758278193013, guid: c6d9a67f4c43f314fa64722c9718d40c, type: 3}
    m_RemovedGameObjects: []
    m_AddedGameObjects: []
    m_AddedComponents: []
  m_SourcePrefab: {fileID: 100100000, guid: c6d9a67f4c43f314fa64722c9718d40c, type: 3}
